lego/lab18/tb_sw_decode.vcd
$date
	Thu Jan  9 18:49:45 2025
$end
$version
	ModelSim Version 2020.1
$end
$timescale
	1ps
$end

$scope module tb_sw_decode $end
$var parameter 32 ! COLUMNS $end
$var parameter 32 " INPUTS $end
$var parameter 32 # ROWS $end
$var reg 1 $ bits_done $end
$var reg 1 % bit_value $end
$var reg 1 & next_bit $end
$var reg 1 ' clk $end
$var reg 1 ( rst $end
$var reg 11 ) sw [10:0] $end
$var reg 14 * single_vector [13:0] $end
$var integer 32 + i $end
$var integer 32 , mm_count $end

$scope module uut $end
$var reg 1 - bits_done $end
$var reg 1 . bit_value $end
$var wire 1 / next_bit $end
$var wire 1 0 sw [10] $end
$var wire 1 1 sw [9] $end
$var wire 1 2 sw [8] $end
$var wire 1 3 sw [7] $end
$var wire 1 4 sw [6] $end
$var wire 1 5 sw [5] $end
$var wire 1 6 sw [4] $end
$var wire 1 7 sw [3] $end
$var wire 1 8 sw [2] $end
$var wire 1 9 sw [1] $end
$var wire 1 : sw [0] $end
$var wire 1 ; clk $end
$var wire 1 < rst $end
$var reg 5 = bit_count [4:0] $end

$scope module u_bd_divider $end
$var parameter 32 > BIT_SIZE $end
$var reg 1 ? tc $end
$var reg 5 @ count [4:0] $end
$var wire 1 ; clk $end
$var wire 1 < rst $end
$var wire 1 / ena $end
$var wire 1 A init_count [4] $end
$var wire 1 B init_count [3] $end
$var wire 1 C init_count [2] $end
$var wire 1 D init_count [1] $end
$var wire 1 E init_count [0] $end
$var reg 5 F next_count [4:0] $end

$scope begin sequential $end
$upscope $end

$scope begin combinational $end

$scope begin mainlogic $end
$upscope $end
$upscope $end
$upscope $end
$upscope $end
$upscope $end

$scope begin std $end
$upscope $end
$enddefinitions $end
#0
$dumpvars
0$
x%
x&
0'
1(
bx )
bx *
0-
x.
bx =
0?
bx @
b11111 F
b1110 !
b1100 "
b1000011 #
b101 >
bx +
bx ,
x/
x:
x9
x8
x7
x6
x5
x4
x3
x2
x1
x0
0;
1<
1E
1D
1C
1B
1A
$end
#5000
1'
1;
b11111 @
b11111 =
0.
0%
#10000
0(
b0 ,
b0 +
b11111111111100 *
1&
b11111111111 )
0'
0<
1/
1:
19
18
17
16
15
14
13
12
11
10
0;
b11110 F
#15000
1'
1;
b11110 @
b11110 =
1.
b11101 F
1%
#20000
0'
0;
b1 +
b111111111100 *
0&
b1111111111 )
0/
00
b11110 F
0.
0%
#25000
1'
1;
#30000
0'
0;
b10 +
b11000000000001 *
1&
b10000000000 )
1/
0:
09
08
07
06
05
04
03
02
01
10
b11101 F
1.
1%
#35000
1'
1;
b11101 @
b11101 =
0.
b11100 F
0%
#40000
0'
0;
b11 +
b1011111111100 *
0&
b10111111111 )
0/
1:
19
18
17
16
15
14
13
12
b11101 F
#45000
1'
1;
#50000
0'
0;
b100 +
b10100000000001 *
1&
b1000000000 )
1/
0:
09
08
07
06
05
04
03
02
11
00
b11100 F
1.
1%
#55000
1'
1;
b11100 @
b11100 =
0.
b11011 F
0%
#60000
0'
0;
b101 +
b1101111111100 *
0&
b11011111111 )
0/
1:
19
18
17
16
15
14
13
10
b11100 F
#65000
1'
1;
#70000
0'
0;
b110 +
b10010000000001 *
1&
b100000000 )
1/
0:
09
08
07
06
05
04
03
12
01
00
b11011 F
1.
1%
#75000
1'
1;
b11011 @
b11011 =
0.
b11010 F
0%
#80000
0'
0;
b111 +
b1110111111100 *
0&
b11101111111 )
0/
1:
19
18
17
16
15
14
11
10
b11011 F
#85000
1'
1;
#90000
0'
0;
b1000 +
b10001000000001 *
1&
b10000000 )
1/
0:
09
08
07
06
05
04
13
02
01
00
b11010 F
1.
1%
#95000
1'
1;
b11010 @
b11010 =
0.
b11001 F
0%
#100000
0'
0;
b1001 +
b1111011111100 *
0&
b11110111111 )
0/
1:
19
18
17
16
15
12
11
10
b11010 F
#105000
1'
1;
#110000
0'
0;
b1010 +
b10000100000001 *
1&
b1000000 )
1/
0:
09
08
07
06
05
14
03
02
01
00
b11001 F
1.
1%
#115000
1'
1;
b11001 @
b11001 =
0.
b11000 F
0%
#120000
0'
0;
b1011 +
b1111101111100 *
0&
b11111011111 )
0/
1:
19
18
17
16
13
12
11
10
b11001 F
#125000
1'
1;
#130000
0'
0;
b1100 +
b10000010000001 *
1&
b100000 )
1/
0:
09
08
07
06
15
04
03
02
01
00
b11000 F
1.
1%
#135000
1'
1;
b11000 @
b11000 =
0.
b10111 F
0%
#140000
0'
0;
b1101 +
b1111110111100 *
0&
b11111101111 )
0/
1:
19
18
17
14
13
12
11
10
b11000 F
#145000
1'
1;
#150000
0'
0;
b1110 +
b10000001000001 *
1&
b10000 )
1/
0:
09
08
07
16
05
04
03
02
01
00
b10111 F
1.
1%
#155000
1'
1;
b10111 @
b10111 =
0.
b10110 F
0%
#160000
0'
0;
b1111 +
b1111111011100 *
0&
b11111110111 )
0/
1:
19
18
15
14
13
12
11
10
b10111 F
#165000
1'
1;
#170000
0'
0;
b10000 +
b10000000100001 *
1&
b1000 )
1/
0:
09
08
17
06
05
04
03
02
01
00
b10110 F
1.
1%
#175000
1'
1;
b10110 @
b10110 =
0.
b10101 F
0%
#180000
0'
0;
b10001 +
b1111111101100 *
0&
b11111111011 )
0/
1:
19
16
15
14
13
12
11
10
b10110 F
#185000
1'
1;
#190000
0'
0;
b10010 +
b10000000010001 *
1&
b100 )
1/
0:
09
18
07
06
05
04
03
02
01
00
b10101 F
1.
1%
#195000
1'
1;
b10101 @
b10101 =
0.
b10100 F
0%
#200000
0'
0;
b10011 +
b1111111110100 *
0&
b11111111101 )
0/
1:
17
16
15
14
13
12
11
10
b10101 F
#205000
1'
1;
#210000
0'
0;
b10100 +
b10000000001001 *
1&
b10 )
1/
0:
19
08
07
06
05
04
03
02
01
00
b10100 F
1.
1%
#215000
1'
1;
b10100 @
b10100 =
0.
b10011 F
0%
#220000
0'
0;
b10101 +
b1111111111000 *
0&
b11111111110 )
0/
18
17
16
15
14
13
12
11
10
b10100 F
#225000
1'
1;
#230000
0'
0;
b10110 +
b10000000000101 *
1&
b1 )
1/
1:
09
08
07
06
05
04
03
02
01
00
b10011 F
1.
1%
#235000
1'
1;
b10011 @
b10011 =
0.
1.
b10010 F
#240000
0'
0;
b10111 +
b1 *
0&
b0 )
0/
0:
b10011 F
0.
1.
#245000
1'
1;
#250000
0'
0;
b11000 +
b100000 *
b1000 )
17
0.
0%
#255000
1'
1;
#260000
0'
0;
b11001 +
b1000000000 *
b10000000 )
07
13
#265000
1'
1;
#270000
0'
0;
b11010 +
b10001000100001 *
1&
b10001000 )
1/
17
b10010 F
1.
1%
#275000
1'
1;
b10010 @
b10010 =
0.
1.
b10001 F
#280000
0'
0;
b11011 +
b1 *
0&
b0 )
0/
07
03
b10010 F
0.
1.
#285000
1'
1;
#290000
0'
0;
b11100 +
b10000 *
b100 )
18
0.
0%
#295000
1'
1;
#300000
0'
0;
b11101 +
b100000000 *
b1000000 )
08
14
#305000
1'
1;
#310000
0'
0;
b11110 +
b100010001 *
b1000100 )
18
1.
1%
#315000
1'
1;
#320000
0'
0;
b11111 +
b1000000000000 *
b10000000000 )
08
04
10
0.
0%
#325000
1'
1;
#330000
0'
0;
b100000 +
b1000000010001 *
b10000000100 )
18
1.
1%
#335000
1'
1;
#340000
0'
0;
b100001 +
b1000100000001 *
b10001000000 )
08
14
0.
1.
#345000
1'
1;
#350000
0'
0;
b100010 +
b11000100010000 *
1&
b10001000100 )
1/
18
b10001 F
0.
0%
#355000
1'
1;
b10001 @
b10001 =
1.
b10000 F
1%
#360000
0'
0;
b100011 +
b1 *
0&
b0 )
0/
08
04
00
b10001 F
0.
1.
#365000
1'
1;
#370000
0'
0;
b100100 +
b1000 *
b10 )
19
0.
0%
#375000
1'
1;
#380000
0'
0;
b100101 +
b10000000 *
b100000 )
09
15
#385000
1'
1;
#390000
0'
0;
b100110 +
b10001001 *
b100010 )
19
1.
1%
#395000
1'
1;
#400000
0'
0;
b100111 +
b100000000000 *
b1000000000 )
09
05
11
0.
0%
#405000
1'
1;
#410000
0'
0;
b101000 +
b100000001001 *
b1000000010 )
19
1.
1%
#415000
1'
1;
#420000
0'
0;
b101001 +
b100010000001 *
b1000100000 )
09
15
0.
1.
#425000
1'
1;
#430000
0'
0;
b101010 +
b10100010001000 *
1&
b1000100010 )
1/
19
b10000 F
0.
0%
#435000
1'
1;
b10000 @
b10000 =
1-
1.
b1111 F
1%
1$
#440000
0'
0;
b101011 +
b1 *
0&
b0 )
0/
09
05
01
b10000 F
0-
0.
1.
0$
#445000
1'
1;
#450000
0'
0;
b101100 +
b100 *
b1 )
1:
0.
0%
#455000
1'
1;
#460000
0'
0;
b101101 +
b1000000 *
b10000 )
0:
16
#465000
1'
1;
#470000
0'
0;
b101110 +
b1000101 *
b10001 )
1:
1.
1%
#475000
1'
1;
#480000
0'
0;
b101111 +
b10000000000 *
b100000000 )
0:
06
12
0.
0%
#485000
1'
1;
#490000
0'
0;
b110000 +
b10000000101 *
b100000001 )
1:
1.
1%
#495000
1'
1;
#500000
0'
0;
b110001 +
b10001000001 *
b100010000 )
0:
16
0.
1.
#505000
1'
1;
#510000
0'
0;
b110010 +
b10010001000110 *
1&
b100010001 )
1/
1:
b1111 F
1-
0.
0%
1$
#515000
1'
1;
b1111 @
b1111 =
0-
1.
b1110 F
1%
0$
#520000
0'
0;
b110011 +
b10000000000001 *
b0 )
0:
06
02
0.
1.
#525000
1'
1;
b1110 @
b1110 =
0.
b1101 F
0%
#530000
0'
0;
b110100 +
b11000000000001 *
b10000000000 )
10
1.
1%
#535000
1'
1;
b1101 @
b1101 =
0.
b1100 F
0%
#540000
0'
0;
b110101 +
b10100000000001 *
b1000000000 )
11
00
1.
1%
#545000
1'
1;
b1100 @
b1100 =
0.
b1011 F
0%
#550000
0'
0;
b110110 +
b10010000000001 *
b100000000 )
12
01
1.
1%
#555000
1'
1;
b1011 @
b1011 =
0.
b1010 F
0%
#560000
0'
0;
b110111 +
b10001000000001 *
b10000000 )
13
02
1.
1%
#565000
1'
1;
b1010 @
b1010 =
0.
b1001 F
0%
#570000
0'
0;
b111000 +
b10000100000001 *
b1000000 )
14
03
1.
1%
#575000
1'
1;
b1001 @
b1001 =
0.
b1000 F
0%
#580000
0'
0;
b111001 +
b10000010000001 *
b100000 )
15
04
1.
1%
#585000
1'
1;
b1000 @
b1000 =
0.
b111 F
0%
#590000
0'
0;
b111010 +
b10000001000001 *
b10000 )
16
05
1.
1%
#595000
1'
1;
b111 @
b111 =
0.
b110 F
0%
#600000
0'
0;
b111011 +
b10000000100001 *
b1000 )
17
06
1.
1%
#605000
1'
1;
b110 @
b110 =
0.
b101 F
0%
#610000
0'
0;
b111100 +
b10000000010001 *
b100 )
18
07
1.
1%
#615000
1'
1;
b101 @
b101 =
0.
b100 F
0%
#620000
0'
0;
b111101 +
b10000000001001 *
b10 )
19
08
1.
1%
#625000
1'
1;
b100 @
b100 =
0.
b11 F
0%
#630000
0'
0;
b111110 +
b10000000000101 *
b1 )
1:
09
1.
1%
#635000
1'
1;
b11 @
b11 =
0.
b10 F
0%
#640000
0'
0;
b111111 +
b0 *
0&
b0 )
0/
0:
b11 F
#645000
1'
1;
#650000
0'
0;
b1000000 +
b100001 *
b1000 )
17
1.
1%
#655000
1'
1;
#660000
0'
0;
b1000001 +
b1000000001 *
b10000000 )
07
13
0.
1.
#665000
1'
1;
#670000
0'
0;
b1000010 +
b10001000100000 *
1&
b10001000 )
1/
17
b10 F
0.
0%
#675000
1'
1;
b10 @
b10 =
1.
b1 F
1%
#680000
0'
0;
b1000011 +
